C:\Users\joseg.munoz\myapps\TodoList\src\main\java\com\softtek\academy\javaweb\dao\Dao.java
C:\Users\joseg.munoz\myapps\TodoList\src\main\java\com\softtek\academy\javaweb\controller\ControllerServlet.java
C:\Users\joseg.munoz\myapps\TodoList\src\main\java\com\softtek\academy\javaweb\bean\ItemBean.java
